[
    {
        "iso2": "CA",
        "code": "AB ",
        "name": "Alberta"
    },
    {
        "iso2": "CA",
        "code": "BC ",
        "name": "British Columbia"
    },
    {
        "iso2": "CA",
        "code": "MB ",
        "name": "Manitoba"
    },
    {
        "iso2": "CA",
        "code": "NB ",
        "name": "New Brunswick"
    },
    {
        "iso2": "CA",
        "code": "NL ",
        "name": "Newfoundland and Labrador"
    },
    {
        "iso2": "CA",
        "code": "NT ",
        "name": "Northwest Territories"
    },
    {
        "iso2": "CA",
        "code": "NS ",
        "name": "Nova Scotia"
    },
    {
        "iso2": "CA",
        "code": "NU ",
        "name": "Nunavut"
    },
    {
        "iso2": "CA",
        "code": "ON ",
        "name": "Ontario"
    },
    {
        "iso2": "CA",
        "code": "PE ",
        "name": "Prince Edward Island"
    },
    {
        "iso2": "CA",
        "code": "QC ",
        "name": "Quebec"
    },
    {
        "iso2": "CA",
        "code": "SK ",
        "name": "Saskatchewan"
    },
    {
        "iso2": "CA",
        "code": "YT ",
        "name": "Yukon"
    }
]